{
  "development": {
    "username": "root",
    "password": null,
    "database": "express_voting",
    "host": "127.0.0.1",
    "dialect": "mysql"
  },
  "test": {
    "username": "root",
    "password": null,
    "database": "database_test",
    "host": "127.0.0.1",
    "dialect": "mysql"
  },
  "production": {
    "username": "ighoclgahsfwcx",
    "password": "17850812a2244f377fccad46f972cdada5631b87fb8b2646d357867d1181bc3c",
    "database": "d2ejcag8unu6bo",
    "host": "ec2-34-225-162-157.compute-1.amazonaws.com",
    "dialect": "postgres"
  }
}
